\contentsline {chapter}{\numberline {1}Pronunciation \& Transliteration}{2}
\contentsline {chapter}{\numberline {2}Word Order}{6}
\contentsline {chapter}{\numberline {3}Vocabulary Interlude 1}{10}
\contentsline {chapter}{\numberline {4}Plural}{14}
\contentsline {chapter}{\numberline {5}Negative}{19}
\contentsline {chapter}{\numberline {6}Template}{22}
